<?xml version="1.0" encoding="UTF-8" standalone="no"?> <!-- Created with Vectornator for iOS (http://vectornator.io/) --><!DOCTYPE svg PUBLIC "-//W3C//DTD SVG 1.1//EN" "http://www.w3.org/Graphics/SVG/1.1/DTD/svg11.dtd">
<svg height="100%" style="fill-rule:evenodd;clip-rule:evenodd;stroke-linecap:round;stroke-linejoin:round;" xmlns:xlink="http://www.w3.org/1999/xlink" xmlns="http://www.w3.org/2000/svg" xml:space="preserve" width="100%" xmlns:vectornator="http://vectornator.io" version="1.1" viewBox="0 0 1024 1024">
<metadata>
<vectornator:setting key="DimensionsVisible" value="1"/>
<vectornator:setting key="SnapToGrid" value="0"/>
<vectornator:setting key="SnapToPoints" value="0"/>
<vectornator:setting key="GuidesVisible" value="1"/>
<vectornator:setting key="RulersVisible" value="1"/>
<vectornator:setting key="CMYKEnabledKey" value="0"/>
<vectornator:setting key="SnapToEdges" value="0"/>
<vectornator:setting key="DisplayWhiteBackground" value="1"/>
<vectornator:setting key="SnapToGuides" value="1"/>
<vectornator:setting key="GridSpacing" value="14.17500019073486"/>
<vectornator:setting key="Units" value="Pixels"/>
<vectornator:setting key="DynamicGuides" value="0"/>
<vectornator:setting key="New" value="1"/>
</metadata>
<defs/>
<g id="Capa 1" vectornator:layerName="Capa 1">
<path d="M-0.120258+0.12806L1023.78-0.351105L1024.29+1024.32L0.768415+1024.14L-0.120258+0.12806Z" opacity="1" fill="#0f2149"/>
</g>
<g id="Capa 2 Copy" vectornator:layerName="Capa 2 Copy">
<path d="M310.741+838.1C310.741+838.1+63.8474+832.181+59.7339+624.77C58.5149+563.305+103.043+491.421+149.464+411.478C206.444+313.353+271.301+205.899+319.476+125.128C386.404+12.9149+503.846+25.5325+519.654+26.3393C612.71+31.0887+668.412+69.666+705.179+132.858C757.456+222.709+808.166+311.221+854.817+390.261C905.291+475.776+954.098+538.91+959.294+616.492C967.642+741.15+848.877+845.397+715.382+836.044C715.382+836.044+975.12+803.839+920.301+586.06C891.036+469.801+829.802+392.291+776.541+295.256C710.496+174.931+674.875+37.2697+517.049+33.3871C399.264+30.4895+351.792+71.5666+243.037+295.394C183.694+417.525+89.8151+541.079+93.8863+642.903C100.295+803.196+310.709+838.015+310.709+838.015" opacity="1" fill="#c8af69"/>
<path d="M403.323+616.057L461.364+617.498C465.777+620.42+470.77+629.425+470.399+634.883C469.975+641.102+466.491+647.953+459.778+650.911L348.714+649.814C348.714+649.814+349.831+619.499+339.584+588.313C329.338+557.127+314.636+550.292+306.777+519.249C304.44+510.018+304.516+483.844+298.004+457.181C291.757+431.607+267.783+414.324+260.771+391.845C253.093+367.228+251.263+354.817+267.567+329.355C300.683+277.638+321.392+303.704+362.32+295.341C429.142+281.685+433.978+272.209+530.413+271.876C573.342+271.727+613.136+290.461+648.342+295.921C690.061+302.391+713.156+278.428+748.705+331.107C779.585+376.868+747.615+405.78+729.593+434.879C712.52+462.447+722.649+497.21+705.62+535.072C700.102+547.34+682.987+571.115+675.931+591.859C666.14+620.642+670.066+650.588+670.066+650.588L554.971+650.538C547.877+641.564+548.407+638.255+548.407+635.078C548.408+630.996+549.679+621.419+554.665+617.846L616.525+617.793L602.906+485.854C602.906+485.854+619.968+479.694+631.652+466.227C643.337+452.761+648.739+429.515+648.739+429.515L565.038+429.745L576.667+569.674L441.1+568.855L452.844+428.439L369.215+429.721C369.215+429.721+369.916+447.22+381.016+462.313C392.116+477.405+414.544+485.913+414.544+485.913L403.323+616.057Z" opacity="1" fill="#c8af69"/>
<path d="M436.145+694.479L582.286+695.215C582.286+695.215+589.71+702.566+589.649+710.658C589.587+718.75+582.041+727.582+582.041+727.582L436.145+727.827C436.145+727.827+428.207+719.919+428.421+711.644C428.636+703.368+436.145+694.479+436.145+694.479Z" opacity="1" fill="#c8af69"/>
<path d="M362.572+798.791C354.535+798.674+348.265+799.544+348.265+799.544L334.779+864.37C334.779+864.37+361.587+868.392+378.727+860.674C392.024+854.686+396.398+837.808+397.689+830.691C398.917+823.916+397.695+809.358+387.557+803.857C380.438+799.994+370.608+798.909+362.572+798.791ZM363.461+810.155C371.642+809.901+387.515+812.056+383.519+833.429C378.342+861.114+350.318+854.034+350.318+854.034L358.875+810.565C358.875+810.565+360.735+810.239+363.461+810.155Z" opacity="1" fill="#ffffff"/>
<path d="M428.014+815.973C403.536+815.973+405.972+845.819+405.972+845.819C405.972+845.819+408.413+865.917+426.576+866.013C447.645+866.125+448.482+852.186+448.482+852.186L438.693+852.186C438.693+852.186+434.564+857.53+427.398+857.32C421.178+857.137+417.198+852.049+417.198+852.049L417.198+845.546L450.193+845.203C450.193+845.203+456.463+815.973+428.014+815.973ZM428.63+824.735C439.723+824.592+439.788+836.852+439.788+836.852L418.841+836.783C418.841+836.783+417.585+824.878+428.63+824.735Z" opacity="1" fill="#ffffff"/>
<path d="M661.833+816.876C637.355+816.876+639.791+846.722+639.791+846.722C639.791+846.722+642.232+866.82+660.395+866.916C681.464+867.028+682.301+853.088+682.301+853.088L672.512+853.088C672.512+853.088+668.383+858.432+661.217+858.222C654.997+858.04+651.017+852.952+651.017+852.951L651.017+846.448L684.012+846.106C684.012+846.106+690.282+816.876+661.833+816.876ZM662.449+825.638C673.542+825.495+673.607+837.755+673.607+837.755L652.66+837.686C652.66+837.686+651.404+825.781+662.449+825.638Z" opacity="1" fill="#ffffff"/>
<path d="M476.343+817.685L463.747+818.027L451.014+883.195L465.253+882.374L468.128+858.757C468.128+858.757+478.431+871.448+493.182+864.507C503.716+859.551+513.212+838.668+504.751+827.268C491.411+809.294+476.822+821.929+476.822+821.929L476.343+817.685ZM487.432+825.625C493.535+827.198+496.743+835.181+494.62+843.423C492.496+851.666+485.8+857.112+479.697+855.54C473.594+853.968+470.386+845.985+472.509+837.742C474.633+829.499+481.329+824.053+487.432+825.625Z" opacity="1" fill="#ffffff"/>
<path d="M536.514+815.836C522.675+815.836+511.46+827.33+511.46+841.507C511.46+855.683+522.675+867.177+536.514+867.177C550.353+867.177+561.568+855.683+561.568+841.507C561.568+827.33+550.353+815.836+536.514+815.836ZM540.963+826.105C547.222+827.578+550.403+835.411+548.083+843.629C545.762+851.847+538.803+857.287+532.544+855.814C526.285+854.34+523.104+846.507+525.424+838.289C527.745+830.071+534.704+824.631+540.963+826.105Z" opacity="1" fill="#ffffff"/>
<path d="M573.422+817.794L568.996+840.129L563.68+864.767C563.68+864.767+577.5+865.012+576.774+864.585C576.049+864.159+577.783+845.656+583.589+836.151C589.395+826.646+599.301+828.119+599.301+828.119L603.219+816.687L591.352+816.423L583.835+824.247L583.514+817.567L573.422+817.794Z" opacity="1" fill="#ffffff"/>
<path d="M616.112+826.144C616.112+826.144+609.777+852.841+610.079+858.322C610.195+860.436+612.629+864.646+617.527+866.133C622.426+867.621+629.787+866.014+629.787+866.014L632.201+855.607C632.201+855.607+624.234+857.951+622.597+855.512C620.737+852.741+628.178+826.546+628.178+826.546L636.575+826.345L637.982+817.295L629.636+817.396L632.854+802.011L618.978+809.452L618.976+817.874L608.872+817.899L608.369+826.094L616.112+826.144Z" opacity="1" fill="#ffffff"/>
<path d="M287.399+915.052L317.042+915.052L318.105+982.786C318.105+982.786+319.08+992.057+333.975+991.991C348.213+991.929+350.143+982.044+350.143+982.044L351.166+915.739L381.064+915.313C381.064+915.313+383.54+985.175+377.083+994.55C368.362+1007.21+349.036+1015.5+332.324+1015.25C316.266+1015.01+300.498+1009.7+292.128+996.945C284.861+985.872+287.399+915.052+287.399+915.052Z" opacity="1" fill="#c7af69"/>
<path d="M428.669+960.082L428.456+1012.28L402.134+1012.67L402.108+915.832L430.181+916.483L466.637+967.573L467.483+916.314L494.551+916.145L493.958+1011.73L466.324+1012.22L428.669+960.082Z" opacity="1" fill="#c7af69"/>
<path d="M574.643+915.985L540.963+916.601L505.915+1012.16L536.24+1012.16L540.69+996.966L575.396+997.24L580.804+1012.92L612.019+1012.23L574.643+915.985ZM557.598+940.629L568.893+975.609L546.782+975.746L557.598+940.629Z" opacity="1" fill="#c7af69"/>
<path d="M621.212+915.119L620.894+1012.17L645.342+1012.59L645.765+940.52L665.139+1012.01L687.782+1012.28L708.509+937.91L708.424+1012.19L732.242+1012.06L732.56+915.754L692.342+916.072L677.42+972.27L660.804+915.543L621.212+915.119Z" opacity="1" fill="#c7af69"/>
</g>
<g id="Capa 2" vectornator:layerName="Capa 2" visibility="hidden">
<path d="M310.734+837.381C310.734+837.381+63.8474+832.181+59.7339+624.77C58.5149+563.305+103.043+491.421+149.464+411.478C206.444+313.353+271.301+205.899+319.476+125.128C386.404+12.9149+503.846+25.5325+519.654+26.3393C612.71+31.0887+668.412+69.666+705.179+132.858C757.456+222.709+808.166+311.221+854.817+390.261C905.291+475.776+954.098+538.91+959.294+616.492C967.642+741.15+848.877+845.397+715.382+836.044C715.382+836.044+975.12+803.839+920.301+586.06C891.036+469.801+829.802+392.291+776.541+295.256C710.496+174.931+674.875+37.2697+517.049+33.3871C399.264+30.4895+351.792+71.5666+243.037+295.394C183.694+417.525+89.8151+541.079+93.8863+642.903C100.295+803.196+310.709+838.015+310.709+838.015" opacity="1" fill="#c7af69"/>
<path d="M403.323+616.057L461.364+617.498C465.777+620.42+470.77+629.425+470.399+634.883C469.975+641.102+466.491+647.953+459.778+650.911L348.714+649.814C348.714+649.814+349.831+619.499+339.584+588.313C329.338+557.127+314.636+550.292+306.777+519.249C304.44+510.018+304.516+483.844+298.004+457.181C291.757+431.607+267.783+414.324+260.771+391.845C253.093+367.228+251.263+354.817+267.567+329.355C300.683+277.638+321.392+303.704+362.32+295.341C429.142+281.685+433.978+272.209+530.413+271.876C573.342+271.727+613.136+290.461+648.342+295.921C690.061+302.391+713.156+278.428+748.705+331.107C779.585+376.868+747.615+405.78+729.593+434.879C712.52+462.447+722.649+497.21+705.62+535.072C700.102+547.34+682.987+571.115+675.931+591.859C666.14+620.642+670.066+650.588+670.066+650.588L554.971+650.538C547.877+641.564+548.407+638.255+548.407+635.078C548.408+630.996+549.679+621.419+554.665+617.846L616.525+617.793L602.906+485.854C602.906+485.854+619.968+479.694+631.652+466.227C643.337+452.761+648.739+429.515+648.739+429.515L565.038+429.745L576.667+569.674L441.1+568.855L452.844+428.439L369.215+429.721C369.215+429.721+369.916+447.22+381.016+462.313C392.116+477.405+414.544+485.913+414.544+485.913L403.323+616.057Z" opacity="1" fill="#c7af69"/>
<path d="M436.145+694.479L582.286+695.215C582.286+695.215+589.71+702.566+589.649+710.658C589.587+718.75+582.041+727.582+582.041+727.582L436.145+727.827C436.145+727.827+428.207+719.919+428.421+711.644C428.636+703.368+436.145+694.479+436.145+694.479Z" opacity="1" fill="#c7af69"/>
<path d="M362.572+798.791C354.535+798.674+348.265+799.544+348.265+799.544L334.779+864.37C334.779+864.37+361.587+868.392+378.727+860.674C392.024+854.686+396.398+837.808+397.689+830.691C398.917+823.916+397.695+809.358+387.557+803.857C380.438+799.994+370.608+798.909+362.572+798.791ZM363.461+810.155C371.642+809.901+387.515+812.056+383.519+833.429C378.342+861.114+350.318+854.034+350.318+854.034L358.875+810.565C358.875+810.565+360.735+810.239+363.461+810.155Z" opacity="1" fill="#c7af69"/>
<path d="M428.014+815.973C403.536+815.973+405.972+845.819+405.972+845.819C405.972+845.819+408.413+865.917+426.576+866.013C447.645+866.125+448.482+852.186+448.482+852.186L438.693+852.186C438.693+852.186+434.564+857.53+427.398+857.32C421.178+857.137+417.198+852.049+417.198+852.049L417.198+845.546L450.193+845.203C450.193+845.203+456.463+815.973+428.014+815.973ZM428.63+824.735C439.723+824.592+439.788+836.852+439.788+836.852L418.841+836.783C418.841+836.783+417.585+824.878+428.63+824.735Z" opacity="1" fill="#c7af69"/>
<path d="M661.833+816.876C637.355+816.876+639.791+846.722+639.791+846.722C639.791+846.722+642.232+866.82+660.395+866.916C681.464+867.028+682.301+853.088+682.301+853.088L672.512+853.088C672.512+853.088+668.383+858.432+661.217+858.222C654.997+858.04+651.017+852.952+651.017+852.951L651.017+846.448L684.012+846.106C684.012+846.106+690.282+816.876+661.833+816.876ZM662.449+825.638C673.542+825.495+673.607+837.755+673.607+837.755L652.66+837.686C652.66+837.686+651.404+825.781+662.449+825.638Z" opacity="1" fill="#c7af69"/>
<path d="M476.343+817.685L463.747+818.027L451.014+883.195L465.253+882.374L468.128+858.757C468.128+858.757+478.431+871.448+493.182+864.507C503.716+859.551+513.212+838.668+504.751+827.268C491.411+809.294+476.822+821.929+476.822+821.929L476.343+817.685ZM487.432+825.625C493.535+827.198+496.743+835.181+494.62+843.423C492.496+851.666+485.8+857.112+479.697+855.54C473.594+853.968+470.386+845.985+472.509+837.742C474.633+829.499+481.329+824.053+487.432+825.625Z" opacity="1" fill="#c7af69"/>
<path d="M536.514+815.836C522.675+815.836+511.46+827.33+511.46+841.507C511.46+855.683+522.675+867.177+536.514+867.177C550.353+867.177+561.568+855.683+561.568+841.507C561.568+827.33+550.353+815.836+536.514+815.836ZM540.963+826.105C547.222+827.578+550.403+835.411+548.083+843.629C545.762+851.847+538.803+857.287+532.544+855.814C526.285+854.34+523.104+846.507+525.424+838.289C527.745+830.071+534.704+824.631+540.963+826.105Z" opacity="1" fill="#c7af69"/>
<path d="M573.422+817.794L568.996+840.129L563.68+864.767C563.68+864.767+577.5+865.012+576.774+864.585C576.049+864.159+577.783+845.656+583.589+836.151C589.395+826.646+599.301+828.119+599.301+828.119L603.219+816.687L591.352+816.423L583.835+824.247L583.514+817.567L573.422+817.794Z" opacity="1" fill="#c7af69"/>
<path d="M616.112+826.144C616.112+826.144+609.777+852.841+610.079+858.322C610.195+860.436+612.629+864.646+617.527+866.133C622.426+867.621+629.787+866.014+629.787+866.014L632.201+855.607C632.201+855.607+624.234+857.951+622.597+855.512C620.737+852.741+628.178+826.546+628.178+826.546L636.575+826.345L637.982+817.295L629.636+817.396L632.854+802.011L618.978+809.452L618.976+817.874L608.872+817.899L608.369+826.094L616.112+826.144Z" opacity="1" fill="#c7af69"/>
<path d="M287.399+915.052L317.042+915.052L318.105+982.786C318.105+982.786+319.08+992.057+333.975+991.991C348.213+991.929+350.143+982.044+350.143+982.044L351.166+915.739L381.064+915.313C381.064+915.313+383.54+985.175+377.083+994.55C368.362+1007.21+349.036+1015.5+332.324+1015.25C316.266+1015.01+300.498+1009.7+292.128+996.945C284.861+985.872+287.399+915.052+287.399+915.052Z" opacity="1" fill="#c7af69"/>
<path d="M428.669+960.082L428.456+1012.28L402.134+1012.67L402.108+915.832L430.181+916.483L466.637+967.573L467.483+916.314L494.551+916.145L493.958+1011.73L466.324+1012.22L428.669+960.082Z" opacity="1" fill="#c7af69"/>
<path d="M574.643+915.985L540.963+916.601L505.915+1012.16L536.24+1012.16L540.69+996.966L575.396+997.24L580.804+1012.92L612.019+1012.23L574.643+915.985ZM557.598+940.629L568.893+975.609L546.782+975.746L557.598+940.629Z" opacity="1" fill="#c7af69"/>
<path d="M621.212+915.119L620.894+1012.17L645.342+1012.59L645.765+940.52L665.139+1012.01L687.782+1012.28L708.509+937.91L708.424+1012.19L732.242+1012.06L732.56+915.754L692.342+916.072L677.42+972.27L660.804+915.543L621.212+915.119Z" opacity="1" fill="#c7af69"/>
</g>
</svg>
